{
    "packageDirectories": [{
        "path": "force-app",
        "default": true,
        "package": "dreamhouse",
        "versionName": "Version 1.0",
        "versionNumber": "1.0.0.NEXT"
    }],
    "namespace": "",
    "sfdcLoginUrl": "https://login.salesforce.com",
    "sourceApiVersion": "46.0",
    "packageAliases": {
        "dreamhouse": "0Ho1U000000TNKgSAO",
        "dreamhouse@0.1.0-1": "04t1U000007scI5QAI",
        "dreamhouse@1.0.0-1": "04t1U000007scIAQAY"
    }
}